{
  "Comment.nvim": { "branch": "master", "commit": "0236521ea582747b58869cb72f70ccfa967d2e89" },
  "LuaSnip": { "branch": "master", "commit": "80a8528f084a97b624ae443a6f50ff8074ba486b" },
  "cmp-nvim-lsp": { "branch": "main", "commit": "44b16d11215dce86f253ce0c30949813c0a90765" },
  "cmp_luasnip": { "branch": "master", "commit": "05a9ab28b53f71d1aece421ef32fee2cb857a843" },
  "dracula.nvim": { "branch": "main", "commit": "7200e64c589f899d29f8963aad7543856d1c2545" },
  "fidget.nvim": { "branch": "main", "commit": "0ba1e16d07627532b6cae915cc992ecac249fb97" },
  "friendly-snippets": { "branch": "main", "commit": "43727c2ff84240e55d4069ec3e6158d74cb534b6" },
  "gitsigns.nvim": { "branch": "main", "commit": "af0f583cd35286dd6f0e3ed52622728703237e50" },
  "indent-blankline.nvim": { "branch": "master", "commit": "29be0919b91fb59eca9e90690d76014233392bef" },
  "lazy.nvim": { "branch": "main", "commit": "16603c6917435d8446f7357cb61095138a417085" },
  "lualine.nvim": { "branch": "master", "commit": "2248ef254d0a1488a72041cfb45ca9caada6d994" },
  "mason-lspconfig.nvim": { "branch": "main", "commit": "40301e1c74bc0946eece13edf2b1c561cc497491" },
  "mason.nvim": { "branch": "main", "commit": "eabf6d347fdb75be360d4c0ced1145670a171453" },
  "neodev.nvim": { "branch": "main", "commit": "80487e4f7bfa11c2ef2a1b461963db019aad6a73" },
  "nvim-cmp": { "branch": "main", "commit": "51260c02a8ffded8e16162dcf41a23ec90cfba62" },
  "nvim-lspconfig": { "branch": "master", "commit": "d0467b9574b48429debf83f8248d8cee79562586" },
  "nvim-treesitter": { "branch": "master", "commit": "1920285ec11654072f14d07258e73ef792ac9005" },
  "nvim-treesitter-textobjects": { "branch": "master", "commit": "e69a504baf2951d52e1f1fbb05145d43f236cbf1" },
  "plenary.nvim": { "branch": "master", "commit": "50012918b2fc8357b87cff2a7f7f0446e47da174" },
  "rust-tools.nvim": { "branch": "master", "commit": "0cc8adab23117783a0292a0c8a2fbed1005dc645" },
  "telescope-fzf-native.nvim": { "branch": "main", "commit": "6c921ca12321edaa773e324ef64ea301a1d0da62" },
  "telescope.nvim": { "branch": "0.1.x", "commit": "7011eaae0ac1afe036e30c95cf80200b8dc3f21a" },
  "transparent.nvim": { "branch": "main", "commit": "3af6232c8d39d51062702e875ff6407c1eeb0391" },
  "vim-fugitive": { "branch": "master", "commit": "46eaf8918b347906789df296143117774e827616" },
  "vim-rhubarb": { "branch": "master", "commit": "ee69335de176d9325267b0fd2597a22901d927b1" },
  "vim-sleuth": { "branch": "master", "commit": "1cc4557420f215d02c4d2645a748a816c220e99b" },
  "which-key.nvim": { "branch": "main", "commit": "4433e5ec9a507e5097571ed55c02ea9658fb268a" }
}